…
And, you can also summarize the daily data by computing a spatial average over the region of interest: 


```r
df <- cft_df(d, ncores = 2)
#> Computing spatial averages...
#> Generating climate data.frame...
df
#> # A tibble: 1,826 x 6
#>    rcp   date       model ensemble area_name tasmax
#>    <chr> <date>     <chr> <chr>    <chr>      <dbl>
#>  1 rcp85 2003-01-01 CCSM4 r6i1p1   windcave    265.
#>  2 rcp85 2003-01-02 CCSM4 r6i1p1   windcave    263.
#>  3 rcp85 2003-01-03 CCSM4 r6i1p1   windcave    268.
#>  4 rcp85 2003-01-04 CCSM4 r6i1p1   windcave    270.
#>  5 rcp85 2003-01-05 CCSM4 r6i1p1   windcave    269.
#>  6 rcp85 2003-01-06 CCSM4 r6i1p1   windcave    274.
#>  7 rcp85 2003-01-07 CCSM4 r6i1p1   windcave    271.
#>  8 rcp85 2003-01-08 CCSM4 r6i1p1   windcave    276.
#>  9 rcp85 2003-01-09 CCSM4 r6i1p1   windcave    271.
#> 10 rcp85 2003-01-10 CCSM4 r6i1p1   windcave    273.
#> # … with 1,816 more rows
```
…
