…
```
## Reading results
```

```
## Converting into an R data.table
```

```r
inputs[[1]]
```

```
## # A tibble: 350 × 9
##    `Available variable`       Variable Units Model `Model ensembl…` Scenario `Variable abbr…` `Model abbrevi…` `Scenario abbr…`
##    <chr>                      <chr>    <chr> <chr> <chr>            <chr>    <chr>            <chr>            <chr>           
##  1 huss_BNU-ESM_r1i1p1_rcp45  Specifi… kg k… Beij… r1i1p1           RCP 4.5  huss             BNU-ESM          rcp45           
##  2 huss_BNU-ESM_r1i1p1_rcp85  Specifi… kg k… Beij… r1i1p1           RCP 8.5  huss             BNU-ESM          rcp85           
##  3 huss_CCSM4_r6i1p1_rcp45    Specifi… kg k… Comm… r6i1p1           RCP 4.5  huss             CCSM4            rcp45           
##  4 huss_CCSM4_r6i1p1_rcp85    Specifi… kg k… Comm… r6i1p1           RCP 8.5  huss             CCSM4            rcp85           
##  5 huss_CNRM-CM5_r1i1p1_rcp45 Specifi… kg k… Cent… r1i1p1           RCP 4.5  huss             CNRM-CM5         rcp45           
##  6 huss_CNRM-CM5_r1i1p1_rcp85 Specifi… kg k… Cent… r1i1p1           RCP 8.5  huss             CNRM-CM5         rcp85           
##  7 huss_CSIRO-Mk3-6-0_r1i1p1… Specifi… kg k… Comm… r1i1p1           RCP 4.5  huss             CSIRO-Mk3-6-0    rcp45           
##  8 huss_CSIRO-Mk3-6-0_r1i1p1… Specifi… kg k… Comm… r1i1p1           RCP 8.5  huss             CSIRO-Mk3-6-0    rcp85           
##  9 huss_CanESM2_r1i1p1_rcp45  Specifi… kg k… Cana… r1i1p1           RCP 4.5  huss             CanESM2          rcp45           
## 10 huss_CanESM2_r1i1p1_rcp85  Specifi… kg k… Cana… r1i1p1           RCP 8.5  huss             CanESM2          rcp85           
## # … with 340 more rows
```
…
