Getting started with the Climate Scenarios Toolbox • cst
…
df <- df %>%
  mutate(year = year(date))

Now, we want to compute growing season length for each year, model, emissions scenario combination.

growing_seasons <- df %>%
  group_by(rcp, model, year, ensemble) %>%
  summarize(season_length = sum(tasmid > 273.15)) %>%
  ungroup

Notice that we used our derived temperature midpoint column tasmid, and computed the total (sum()) number of days for each group where the temperature midpoint was greater than 0 C (or, 273.15 Kelvin, which are the units of the temperature data).

growing_seasons
#> # A tibble: 2,440 x 5
#>    rcp   model       year ensemble season_length
#>    <chr> <chr>      <dbl> <chr>            <int>
#>  1 rcp45 bcc-csm1-1  1980 r1i1p1             284
#>  2 rcp45 bcc-csm1-1  1981 r1i1p1             299
#>  3 rcp45 bcc-csm1-1  1982 r1i1p1             284
#>  4 rcp45 bcc-csm1-1  1983 r1i1p1             272
#>  5 rcp45 bcc-csm1-1  1984 r1i1p1             295
#>  6 rcp45 bcc-csm1-1  1985 r1i1p1             283
#>  7 rcp45 bcc-csm1-1  1986 r1i1p1             285
#>  8 rcp45 bcc-csm1-1  1987 r1i1p1             281
#>  9 rcp45 bcc-csm1-1  1988 r1i1p1             279
#> 10 rcp45 bcc-csm1-1  1989 r1i1p1             272
#> # … with 2,430 more rows
…
